[{"line":1,"elements":[{"line":4,"name":"","description":"","type":"background","keyword":"Background","steps":[{"name":"def db = Java.type('misc.MyDb')","result":{"duration":9107300,"status":"passed"},"match":{"location":"karate","arguments":[]},"keyword":"*","line":5,"doc_string":{"content_type":"","value":"15:22:13.930 skipping bootstrap configuration: could not find or read file: classpath:karate-config.js","line":5}}]},{"line":8,"name":"writing file","description":"","id":"writing-file","type":"scenario","keyword":"Scenario","steps":[{"name":"def util = Java.type(\"misc.Utils\")","result":{"duration":3371400,"status":"passed"},"match":{"location":"karate","arguments":[]},"keyword":"*","line":9},{"name":"url \"https:\/\/reqres.in\/api\/users?page=2\"","result":{"duration":2151700,"status":"passed"},"match":{"location":"karate","arguments":[]},"keyword":"Given","line":10},{"name":"method get","result":{"duration":746535600,"status":"passed"},"match":{"location":"karate","arguments":[]},"keyword":"When","line":11,"doc_string":{"content_type":"","value":"15:22:14.274 request:\n1 > GET https:\/\/reqres.in\/api\/users?page=2\n1 > Accept-Encoding: gzip,deflate\n1 > Connection: Keep-Alive\n1 > Host: reqres.in\n1 > User-Agent: Apache-HttpClient\/4.5.12 (Java\/1.8.0_251)\n\n15:22:14.664 response time in milliseconds: 385.47\n1 < 200\n1 < Access-Control-Allow-Origin: *\n1 < Age: 1130\n1 < CF-Cache-Status: HIT\n1 < CF-RAY: 61c37f6ce95101cd-SIN\n1 < Cache-Control: max-age=14400\n1 < Connection: keep-alive\n1 < Content-Type: application\/json; charset=utf-8\n1 < Date: Thu, 04 Feb 2021 09:52:14 GMT\n1 < Etag: W\/\"406-ut0vzoCuidvyMf8arZpMpJ6ZRDw\"\n1 < Expect-CT: max-age=604800, report-uri=\"https:\/\/report-uri.cloudflare.com\/cdn-cgi\/beacon\/expect-ct\"\n1 < NEL: {\"max_age\":604800,\"report_to\":\"cf-nel\"}\n1 < Report-To: {\"group\":\"cf-nel\",\"endpoints\":[{\"url\":\"https:\\\/\\\/a.nel.cloudflare.com\\\/report?s=jIDlFrwkh4qqhGWtyOCWweDCftOa4JcTnYtOWJX4XMoQ4QzMx3nO1%2Bo9Oi7vv0uvyA2WmZmJw8tDPe9o61H%2BhKnr6WcBqxSiUgQ%3D\"}],\"max_age\":604800}\n1 < Server: cloudflare\n1 < Set-Cookie: __cfduid=d844285fd3bad18537764e1b1db1a455c1612432334; expires=Sat, 06-Mar-21 09:52:14 GMT; path=\/; domain=.reqres.in; HttpOnly; SameSite=Lax; Secure\n1 < Transfer-Encoding: chunked\n1 < Vary: Accept-Encoding\n1 < Via: 1.1 vegur\n1 < X-Powered-By: Express\n1 < cf-request-id: 080e0df812000001cde28e9000000001\n{\"page\":2,\"per_page\":6,\"total\":12,\"total_pages\":2,\"data\":[{\"id\":7,\"email\":\"michael.lawson@reqres.in\",\"first_name\":\"Michael\",\"last_name\":\"Lawson\",\"avatar\":\"https:\/\/reqres.in\/img\/faces\/7-image.jpg\"},{\"id\":8,\"email\":\"lindsay.ferguson@reqres.in\",\"first_name\":\"Lindsay\",\"last_name\":\"Ferguson\",\"avatar\":\"https:\/\/reqres.in\/img\/faces\/8-image.jpg\"},{\"id\":9,\"email\":\"tobias.funke@reqres.in\",\"first_name\":\"Tobias\",\"last_name\":\"Funke\",\"avatar\":\"https:\/\/reqres.in\/img\/faces\/9-image.jpg\"},{\"id\":10,\"email\":\"byron.fields@reqres.in\",\"first_name\":\"Byron\",\"last_name\":\"Fields\",\"avatar\":\"https:\/\/reqres.in\/img\/faces\/10-image.jpg\"},{\"id\":11,\"email\":\"george.edwards@reqres.in\",\"first_name\":\"George\",\"last_name\":\"Edwards\",\"avatar\":\"https:\/\/reqres.in\/img\/faces\/11-image.jpg\"},{\"id\":12,\"email\":\"rachel.howell@reqres.in\",\"first_name\":\"Rachel\",\"last_name\":\"Howell\",\"avatar\":\"https:\/\/reqres.in\/img\/faces\/12-image.jpg\"}],\"support\":{\"url\":\"https:\/\/reqres.in\/#support-heading\",\"text\":\"To keep ReqRes free, contributions towards server costs are appreciated!\"}}","line":11}},{"name":"status 200","result":{"duration":10500,"status":"passed"},"match":{"location":"karate","arguments":[]},"keyword":"Then","line":12},{"name":"def res = get response $.data[0].email","result":{"duration":10411700,"status":"passed"},"match":{"location":"karate","arguments":[]},"keyword":"*","line":13},{"name":"print res","result":{"duration":156500,"status":"passed"},"match":{"location":"karate","arguments":[]},"keyword":"*","line":15,"doc_string":{"content_type":"","value":"15:22:14.711 [print] michael.lawson@reqres.in","line":15}},{"name":"util.writeToFile(\"result.txt\",res)","result":{"duration":9135500,"status":"passed"},"match":{"location":"karate","arguments":[]},"keyword":"*","line":16}]},{"line":4,"name":"","description":"","type":"background","keyword":"Background","steps":[{"name":"def db = Java.type('misc.MyDb')","result":{"duration":661900,"status":"passed"},"match":{"location":"karate","arguments":[]},"keyword":"*","line":5,"doc_string":{"content_type":"","value":"15:22:14.727 skipping bootstrap configuration: could not find or read file: classpath:karate-config.js","line":5}}]},{"line":18,"name":"reading file","description":"","id":"reading-file","type":"scenario","keyword":"Scenario","steps":[{"name":"def data = read(\"classpath:result.txt\")","result":{"duration":4523000,"status":"passed"},"match":{"location":"karate","arguments":[]},"keyword":"*","line":19},{"name":"print data","result":{"duration":167200,"status":"passed"},"match":{"location":"karate","arguments":[]},"keyword":"*","line":20,"doc_string":{"content_type":"","value":"15:22:14.742 [print] michael.lawson@reqres.in","line":20}}]}],"name":"src\/test\/java\/FeatureFile\/karate15writing_responseToFile.feature","description":"karate test suite 16\nInteracting with DB","id":"karate-test-suite-16","keyword":"Feature","uri":"src\/test\/java\/FeatureFile\/karate15writing_responseToFile.feature"}]