[{"line":1,"elements":[{"line":6,"name":"writing file","description":"","id":"writing-file","type":"scenario","keyword":"Scenario","steps":[{"name":"def util = Java.type(\"misc.Utils\")","result":{"duration":2351200,"status":"passed"},"match":{"location":"karate","arguments":[]},"keyword":"*","line":7,"doc_string":{"content_type":"","value":"15:09:10.993 From karate-config file","line":7}},{"name":"url \"https:\/\/reqres.in\/api\/users?page=2\"","result":{"duration":1382500,"status":"passed"},"match":{"location":"karate","arguments":[]},"keyword":"Given","line":8},{"name":"method get","result":{"duration":236425700,"status":"passed"},"match":{"location":"karate","arguments":[]},"keyword":"When","line":9,"doc_string":{"content_type":"","value":"15:09:11.009 request:\n1 > GET https:\/\/reqres.in\/api\/users?page=2\n1 > Accept-Encoding: gzip,deflate\n1 > Connection: Keep-Alive\n1 > Host: reqres.in\n1 > User-Agent: Apache-HttpClient\/4.5.12 (Java\/1.8.0_251)\n\n15:09:11.243 response time in milliseconds: 234.57\n1 < 200\n1 < Access-Control-Allow-Origin: *\n1 < Age: 246\n1 < CF-Cache-Status: HIT\n1 < CF-RAY: 61cba9aa0abe1a98-SIN\n1 < Cache-Control: max-age=14400\n1 < Connection: keep-alive\n1 < Content-Type: application\/json; charset=utf-8\n1 < Date: Fri, 05 Feb 2021 09:39:11 GMT\n1 < Etag: W\/\"406-ut0vzoCuidvyMf8arZpMpJ6ZRDw\"\n1 < Expect-CT: max-age=604800, report-uri=\"https:\/\/report-uri.cloudflare.com\/cdn-cgi\/beacon\/expect-ct\"\n1 < NEL: {\"report_to\":\"cf-nel\",\"max_age\":604800}\n1 < Report-To: {\"group\":\"cf-nel\",\"endpoints\":[{\"url\":\"https:\\\/\\\/a.nel.cloudflare.com\\\/report?s=YIG1CMeMB3fc21kN8QtfZdQfaYa2H9as0ERvTP%2FCAHnlkz9PYc3GjYyRc3SfNcakTboxE1utw%2FdNstRvX46vgmbnIit3hy%2BJSjA%3D\"}],\"max_age\":604800}\n1 < Server: cloudflare\n1 < Set-Cookie: __cfduid=d37b3dc045d9accc9499da934dcc2319f1612517951; expires=Sun, 07-Mar-21 09:39:11 GMT; path=\/; domain=.reqres.in; HttpOnly; SameSite=Lax; Secure\n1 < Transfer-Encoding: chunked\n1 < Vary: Accept-Encoding\n1 < Via: 1.1 vegur\n1 < X-Powered-By: Express\n1 < cf-request-id: 0813285e4300001a984d1e4000000001\n{\"page\":2,\"per_page\":6,\"total\":12,\"total_pages\":2,\"data\":[{\"id\":7,\"email\":\"michael.lawson@reqres.in\",\"first_name\":\"Michael\",\"last_name\":\"Lawson\",\"avatar\":\"https:\/\/reqres.in\/img\/faces\/7-image.jpg\"},{\"id\":8,\"email\":\"lindsay.ferguson@reqres.in\",\"first_name\":\"Lindsay\",\"last_name\":\"Ferguson\",\"avatar\":\"https:\/\/reqres.in\/img\/faces\/8-image.jpg\"},{\"id\":9,\"email\":\"tobias.funke@reqres.in\",\"first_name\":\"Tobias\",\"last_name\":\"Funke\",\"avatar\":\"https:\/\/reqres.in\/img\/faces\/9-image.jpg\"},{\"id\":10,\"email\":\"byron.fields@reqres.in\",\"first_name\":\"Byron\",\"last_name\":\"Fields\",\"avatar\":\"https:\/\/reqres.in\/img\/faces\/10-image.jpg\"},{\"id\":11,\"email\":\"george.edwards@reqres.in\",\"first_name\":\"George\",\"last_name\":\"Edwards\",\"avatar\":\"https:\/\/reqres.in\/img\/faces\/11-image.jpg\"},{\"id\":12,\"email\":\"rachel.howell@reqres.in\",\"first_name\":\"Rachel\",\"last_name\":\"Howell\",\"avatar\":\"https:\/\/reqres.in\/img\/faces\/12-image.jpg\"}],\"support\":{\"url\":\"https:\/\/reqres.in\/#support-heading\",\"text\":\"To keep ReqRes free, contributions towards server costs are appreciated!\"}}","line":9}},{"name":"status 200","result":{"duration":4100,"status":"passed"},"match":{"location":"karate","arguments":[]},"keyword":"Then","line":10},{"name":"def res = get response $.data[0].email","result":{"duration":286100,"status":"passed"},"match":{"location":"karate","arguments":[]},"keyword":"*","line":11},{"name":"print res","result":{"duration":64600,"status":"passed"},"match":{"location":"karate","arguments":[]},"keyword":"*","line":13,"doc_string":{"content_type":"","value":"15:09:11.243 [print] michael.lawson@reqres.in","line":13}},{"name":"util.writeToFile(\"result.txt\",res)","result":{"duration":4143700,"status":"passed"},"match":{"location":"karate","arguments":[]},"keyword":"*","line":14,"doc_string":{"content_type":"","value":"15:09:11.243 after scenario inside config","line":14}}]},{"line":16,"name":"reading file","description":"","id":"reading-file","type":"scenario","keyword":"Scenario","steps":[{"name":"def data = read(\"classpath:result.txt\")","result":{"duration":6106000,"status":"passed"},"match":{"location":"karate","arguments":[]},"keyword":"*","line":17,"doc_string":{"content_type":"","value":"15:09:11.243 From karate-config file","line":17}},{"name":"print data","result":{"duration":102300,"status":"passed"},"match":{"location":"karate","arguments":[]},"keyword":"*","line":18,"doc_string":{"content_type":"","value":"15:09:11.258 [print] michael.lawson@reqres.in15:09:11.258 after scenario inside config","line":18}}]}],"name":"FeatureFile\/karate15writing_responseToFile.feature","description":"karate test suite 16\nInteracting with DB","id":"karate-test-suite-16","keyword":"Feature","uri":"FeatureFile\/karate15writing_responseToFile.feature"}]